{
    "profile": "sbx",
    "provider_version": "3.46",
    "iam_account_id" : "000000000000",
    "registration": {
        "region": "us-east-1"
    },
    "regions_to_protect": [
        "eu-west-1",
        "eu-west-2"
    ]
}